module Server

go 1.18

require (
	github.com/appleboy/gin-jwt/v2 v2.9.1 // indirect
	github.com/cosmtrek/air v1.42.0 // indirect
	github.com/creack/pty v1.1.18 // indirect
	github.com/fatih/color v1.15.0 // indirect
	github.com/fsnotify/fsnotify v1.6.0 // indirect
	github.com/gin-contrib/cors v1.4.0 // indirect
	github.com/gin-contrib/sse v0.1.0 // indirect
	github.com/gin-gonic/gin v1.8.2 // indirect
	github.com/go-playground/locales v0.14.1 // indirect
	github.com/go-playground/universal-translator v0.18.1 // indirect
	github.com/go-playground/validator/v10 v10.11.2 // indirect
	github.com/goccy/go-json v0.10.0 // indirect
	github.com/golang-jwt/jwt/v4 v4.4.3 // indirect
	github.com/howeyc/fsnotify v0.9.0 // indirect
	github.com/imdario/mergo v0.3.14 // indirect
	github.com/jackc/pgpassfile v1.0.0 // indirect
	github.com/jackc/pgservicefile v0.0.0-20221227161230-091c0ba34f0a // indirect
	github.com/jackc/pgx/v5 v5.2.0 // indirect
	github.com/jinzhu/inflection v1.0.0 // indirect
	github.com/jinzhu/now v1.1.5 // indirect
	github.com/joho/godotenv v1.5.1 // indirect
	github.com/json-iterator/go v1.1.12 // indirect
	github.com/leodido/go-urn v1.2.1 // indirect
	github.com/mattn/go-colorable v0.1.13 // indirect
	github.com/mattn/go-isatty v0.0.17 // indirect
	github.com/modern-go/concurrent v0.0.0-20180306012644-bacd9c7ef1dd // indirect
	github.com/modern-go/reflect2 v1.0.2 // indirect
	github.com/pelletier/go-toml v1.9.5 // indirect
	github.com/pelletier/go-toml/v2 v2.0.6 // indirect
	github.com/pilu/config v0.0.0-20131214182432-3eb99e6c0b9a // indirect
	github.com/pilu/fresh v0.0.0-20190826141211-0fa698148017 // indirect
	github.com/sirupsen/logrus v1.9.0 // indirect
	github.com/ugorji/go/codec v1.2.9 // indirect
	golang.org/x/crypto v0.5.0 // indirect
	golang.org/x/net v0.5.0 // indirect
	golang.org/x/sys v0.6.0 // indirect
	golang.org/x/text v0.6.0 // indirect
	google.golang.org/protobuf v1.28.1 // indirect
	gopkg.in/yaml.v2 v2.4.0 // indirect
	gorm.io/driver/postgres v1.4.6 // indirect
	gorm.io/gorm v1.24.5 // indirect
)
